Un'introduzione alle funzionalità di purrr
…
Data frame output

Abbiamo imparato come estrarre più elementi per ciascun carattere di Game of Thrones usando [. Tuttavia, usando [ gli elementi di ogni carattere di Game of Thrones vengono restituiti in una lista. E anche map() ci restituisce una lista. Siamo dunque passati dalla struttura di una lista ad una nuova struttura che, anch’essa, è una lista, anche se leggermente meno complicata.

Vorremmo però organizzare questi risultati in una struttuera più semplice, ovvero in modo tale da avere una riga per ciascun carattere di Game of Thrones e colonne per variabili per “nome”, “sesso”, ecc.. Un data frame è la struttura dati perfetta per queste informazioni.

Questo è lo scopo di map_dfr().

map_dfr(
  got_chars, 
  magrittr::extract, 
  c("name", "culture", "gender", "id", "born", "alive")
)

# A tibble: 30 x 6
   name          culture   gender    id born                     alive
   <chr>         <chr>     <chr>  <int> <chr>                    <lgl>
 1 Theon Greyjoy "Ironbor… Male    1022 "In 278 AC or 279 AC, a… TRUE 
 2 Tyrion Lanni… ""        Male    1052 "In 273 AC, at Casterly… TRUE 
 3 Victarion Gr… "Ironbor… Male    1074 "In 268 AC or before, a… TRUE 
 4 Will          ""        Male    1109 ""                       FALSE
 5 Areo Hotah    "Norvosh… Male    1166 "In 257 AC or before, a… TRUE 
 6 Chett         ""        Male    1267 "At Hag's Mire"          FALSE
 7 Cressen       ""        Male    1295 "In 219 AC or 220 AC"    FALSE
 8 Arianne Mart… "Dornish" Female   130 "In 276 AC, at Sunspear" TRUE 
 9 Daenerys Tar… "Valyria… Female  1303 "In 284 AC, at Dragonst… TRUE 
10 Davos Seawor… "Westero… Male    1319 "In 260 AC or before, a… TRUE 
# … with 20 more rows
…
